%YAML 1.1
%TAG !u! tag:unity3d.com,2011:
--- !u!1 &473924830712789034
GameObject:
  m_ObjectHideFlags: 0
  m_CorrespondingSourceObject: {fileID: 0}
  m_PrefabInstance: {fileID: 0}
  m_PrefabAsset: {fileID: 0}
  serializedVersion: 6
  m_Component:
  - component: {fileID: 4318048383172350323}
  - component: {fileID: 8842833342593054535}
  - component: {fileID: 4385763361468955115}
  m_Layer: 0
  m_Name: Layer1
  m_TagString: Untagged
  m_Icon: {fileID: 0}
  m_NavMeshLayer: 0
  m_StaticEditorFlags: 0
  m_IsActive: 1
--- !u!4 &4318048383172350323
Transform:
  m_ObjectHideFlags: 0
  m_CorrespondingSourceObject: {fileID: 0}
  m_PrefabInstance: {fileID: 0}
  m_PrefabAsset: {fileID: 0}
  m_GameObject: {fileID: 473924830712789034}
  m_LocalRotation: {x: -0, y: -0, z: -0, w: 1}
  m_LocalPosition: {x: 0, y: 0, z: 0}
  m_LocalScale: {x: 1, y: 1, z: 1}
  m_Children: []
  m_Father: {fileID: 3043851732527256221}
  m_RootOrder: 0
  m_LocalEulerAnglesHint: {x: 0, y: 0, z: 0}
--- !u!1839735485 &8842833342593054535
Tilemap:
  m_ObjectHideFlags: 0
  m_CorrespondingSourceObject: {fileID: 0}
  m_PrefabInstance: {fileID: 0}
  m_PrefabAsset: {fileID: 0}
  m_GameObject: {fileID: 473924830712789034}
  m_Enabled: 1
  m_Tiles:
  - first: {x: 2, y: -5, z: 0}
    second:
      serializedVersion: 2
      m_TileIndex: 42
      m_TileSpriteIndex: 42
      m_TileMatrixIndex: 0
      m_TileColorIndex: 0
      m_TileObjectToInstantiateIndex: 65535
      m_AllTileFlags: 1073741825
  - first: {x: 3, y: -5, z: 0}
    second:
      serializedVersion: 2
      m_TileIndex: 43
      m_TileSpriteIndex: 43
      m_TileMatrixIndex: 0
      m_TileColorIndex: 0
      m_TileObjectToInstantiateIndex: 65535
      m_AllTileFlags: 1073741825
  - first: {x: 2, y: -4, z: 0}
    second:
      serializedVersion: 2
      m_TileIndex: 35
      m_TileSpriteIndex: 35
      m_TileMatrixIndex: 0
      m_TileColorIndex: 0
      m_TileObjectToInstantiateIndex: 65535
      m_AllTileFlags: 1073741825
  - first: {x: 3, y: -4, z: 0}
    second:
      serializedVersion: 2
      m_TileIndex: 36
      m_TileSpriteIndex: 36
      m_TileMatrixIndex: 0
      m_TileColorIndex: 0
      m_TileObjectToInstantiateIndex: 65535
      m_AllTileFlags: 1073741825
  - first: {x: 4, y: -4, z: 0}
    second:
      serializedVersion: 2
      m_TileIndex: 37
      m_TileSpriteIndex: 37
      m_TileMatrixIndex: 0
      m_TileColorIndex: 0
      m_TileObjectToInstantiateIndex: 65535
      m_AllTileFlags: 1073741825
  - first: {x: 5, y: -4, z: 0}
    second:
      serializedVersion: 2
      m_TileIndex: 38
      m_TileSpriteIndex: 38
      m_TileMatrixIndex: 0
      m_TileColorIndex: 0
      m_TileObjectToInstantiateIndex: 65535
      m_AllTileFlags: 1073741825
  - first: {x: 6, y: -4, z: 0}
    second:
      serializedVersion: 2
      m_TileIndex: 39
      m_TileSpriteIndex: 39
      m_TileMatrixIndex: 0
      m_TileColorIndex: 0
      m_TileObjectToInstantiateIndex: 65535
      m_AllTileFlags: 1073741825
  - first: {x: 7, y: -4, z: 0}
    second:
      serializedVersion: 2
      m_TileIndex: 40
      m_TileSpriteIndex: 40
      m_TileMatrixIndex: 0
      m_TileColorIndex: 0
      m_TileObjectToInstantiateIndex: 65535
      m_AllTileFlags: 1073741825
  - first: {x: 8, y: -4, z: 0}
    second:
      serializedVersion: 2
      m_TileIndex: 41
      m_TileSpriteIndex: 41
      m_TileMatrixIndex: 0
      m_TileColorIndex: 0
      m_TileObjectToInstantiateIndex: 65535
      m_AllTileFlags: 1073741825
  - first: {x: 2, y: -3, z: 0}
    second:
      serializedVersion: 2
      m_TileIndex: 28
      m_TileSpriteIndex: 28
      m_TileMatrixIndex: 0
      m_TileColorIndex: 0
      m_TileObjectToInstantiateIndex: 65535
      m_AllTileFlags: 1073741825
  - first: {x: 3, y: -3, z: 0}
    second:
      serializedVersion: 2
      m_TileIndex: 29
      m_TileSpriteIndex: 29
      m_TileMatrixIndex: 0
      m_TileColorIndex: 0
      m_TileObjectToInstantiateIndex: 65535
      m_AllTileFlags: 1073741825
  - first: {x: 4, y: -3, z: 0}
    second:
      serializedVersion: 2
      m_TileIndex: 30
      m_TileSpriteIndex: 30
      m_TileMatrixIndex: 0
      m_TileColorIndex: 0
      m_TileObjectToInstantiateIndex: 65535
      m_AllTileFlags: 1073741825
  - first: {x: 5, y: -3, z: 0}
    second:
      serializedVersion: 2
      m_TileIndex: 31
      m_TileSpriteIndex: 31
      m_TileMatrixIndex: 0
      m_TileColorIndex: 0
      m_TileObjectToInstantiateIndex: 65535
      m_AllTileFlags: 1073741825
  - first: {x: 6, y: -3, z: 0}
    second:
      serializedVersion: 2
      m_TileIndex: 32
      m_TileSpriteIndex: 32
      m_TileMatrixIndex: 0
      m_TileColorIndex: 0
      m_TileObjectToInstantiateIndex: 65535
      m_AllTileFlags: 1073741825
  - first: {x: 7, y: -3, z: 0}
    second:
      serializedVersion: 2
      m_TileIndex: 33
      m_TileSpriteIndex: 33
      m_TileMatrixIndex: 0
      m_TileColorIndex: 0
      m_TileObjectToInstantiateIndex: 65535
      m_AllTileFlags: 1073741825
  - first: {x: 8, y: -3, z: 0}
    second:
      serializedVersion: 2
      m_TileIndex: 34
      m_TileSpriteIndex: 34
      m_TileMatrixIndex: 0
      m_TileColorIndex: 0
      m_TileObjectToInstantiateIndex: 65535
      m_AllTileFlags: 1073741825
  - first: {x: -1, y: -2, z: 0}
    second:
      serializedVersion: 2
      m_TileIndex: 6
      m_TileSpriteIndex: 6
      m_TileMatrixIndex: 0
      m_TileColorIndex: 0
      m_TileObjectToInstantiateIndex: 65535
      m_AllTileFlags: 1073741825
  - first: {x: 2, y: -2, z: 0}
    second:
      serializedVersion: 2
      m_TileIndex: 21
      m_TileSpriteIndex: 21
      m_TileMatrixIndex: 0
      m_TileColorIndex: 0
      m_TileObjectToInstantiateIndex: 65535
      m_AllTileFlags: 1073741825
  - first: {x: 3, y: -2, z: 0}
    second:
      serializedVersion: 2
      m_TileIndex: 22
      m_TileSpriteIndex: 22
      m_TileMatrixIndex: 0
      m_TileColorIndex: 0
      m_TileObjectToInstantiateIndex: 65535
      m_AllTileFlags: 1073741825
  - first: {x: 4, y: -2, z: 0}
    second:
      serializedVersion: 2
      m_TileIndex: 23
      m_TileSpriteIndex: 23
      m_TileMatrixIndex: 0
      m_TileColorIndex: 0
      m_TileObjectToInstantiateIndex: 65535
      m_AllTileFlags: 1073741825
  - first: {x: 5, y: -2, z: 0}
    second:
      serializedVersion: 2
      m_TileIndex: 24
      m_TileSpriteIndex: 24
      m_TileMatrixIndex: 0
      m_TileColorIndex: 0
      m_TileObjectToInstantiateIndex: 65535
      m_AllTileFlags: 1073741825
  - first: {x: 6, y: -2, z: 0}
    second:
      serializedVersion: 2
      m_TileIndex: 25
      m_TileSpriteIndex: 25
      m_TileMatrixIndex: 0
      m_TileColorIndex: 0
      m_TileObjectToInstantiateIndex: 65535
      m_AllTileFlags: 1073741825
  - first: {x: 7, y: -2, z: 0}
    second:
      serializedVersion: 2
      m_TileIndex: 26
      m_TileSpriteIndex: 26
      m_TileMatrixIndex: 0
      m_TileColorIndex: 0
      m_TileObjectToInstantiateIndex: 65535
      m_AllTileFlags: 1073741825
  - first: {x: 8, y: -2, z: 0}
    second:
      serializedVersion: 2
      m_TileIndex: 27
      m_TileSpriteIndex: 27
      m_TileMatrixIndex: 0
      m_TileColorIndex: 0
      m_TileObjectToInstantiateIndex: 65535
      m_AllTileFlags: 1073741825
  - first: {x: -1, y: -1, z: 0}
    second:
      serializedVersion: 2
      m_TileIndex: 3
      m_TileSpriteIndex: 3
      m_TileMatrixIndex: 0
      m_TileColorIndex: 0
      m_TileObjectToInstantiateIndex: 65535
      m_AllTileFlags: 1073741825
  - first: {x: 0, y: -1, z: 0}
    second:
      serializedVersion: 2
      m_TileIndex: 4
      m_TileSpriteIndex: 4
      m_TileMatrixIndex: 0
      m_TileColorIndex: 0
      m_TileObjectToInstantiateIndex: 65535
      m_AllTileFlags: 1073741825
  - first: {x: 1, y: -1, z: 0}
    second:
      serializedVersion: 2
      m_TileIndex: 5
      m_TileSpriteIndex: 5
      m_TileMatrixIndex: 0
      m_TileColorIndex: 0
      m_TileObjectToInstantiateIndex: 65535
      m_AllTileFlags: 1073741825
  - first: {x: 2, y: -1, z: 0}
    second:
      serializedVersion: 2
      m_TileIndex: 14
      m_TileSpriteIndex: 14
      m_TileMatrixIndex: 0
      m_TileColorIndex: 0
      m_TileObjectToInstantiateIndex: 65535
      m_AllTileFlags: 1073741825
  - first: {x: 3, y: -1, z: 0}
    second:
      serializedVersion: 2
      m_TileIndex: 15
      m_TileSpriteIndex: 15
      m_TileMatrixIndex: 0
      m_TileColorIndex: 0
      m_TileObjectToInstantiateIndex: 65535
      m_AllTileFlags: 1073741825
  - first: {x: 4, y: -1, z: 0}
    second:
      serializedVersion: 2
      m_TileIndex: 16
      m_TileSpriteIndex: 16
      m_TileMatrixIndex: 0
      m_TileColorIndex: 0
      m_TileObjectToInstantiateIndex: 65535
      m_AllTileFlags: 1073741825
  - first: {x: 5, y: -1, z: 0}
    second:
      serializedVersion: 2
      m_TileIndex: 17
      m_TileSpriteIndex: 17
      m_TileMatrixIndex: 0
      m_TileColorIndex: 0
      m_TileObjectToInstantiateIndex: 65535
      m_AllTileFlags: 1073741825
  - first: {x: 6, y: -1, z: 0}
    second:
      serializedVersion: 2
      m_TileIndex: 18
      m_TileSpriteIndex: 18
      m_TileMatrixIndex: 0
      m_TileColorIndex: 0
      m_TileObjectToInstantiateIndex: 65535
      m_AllTileFlags: 1073741825
  - first: {x: 7, y: -1, z: 0}
    second:
      serializedVersion: 2
      m_TileIndex: 19
      m_TileSpriteIndex: 19
      m_TileMatrixIndex: 0
      m_TileColorIndex: 0
      m_TileObjectToInstantiateIndex: 65535
      m_AllTileFlags: 1073741825
  - first: {x: 8, y: -1, z: 0}
    second:
      serializedVersion: 2
      m_TileIndex: 20
      m_TileSpriteIndex: 20
      m_TileMatrixIndex: 0
      m_TileColorIndex: 0
      m_TileObjectToInstantiateIndex: 65535
      m_AllTileFlags: 1073741825
  - first: {x: -1, y: 0, z: 0}
    second:
      serializedVersion: 2
      m_TileIndex: 0
      m_TileSpriteIndex: 0
      m_TileMatrixIndex: 0
      m_TileColorIndex: 0
      m_TileObjectToInstantiateIndex: 65535
      m_AllTileFlags: 1073741825
  - first: {x: 0, y: 0, z: 0}
    second:
      serializedVersion: 2
      m_TileIndex: 1
      m_TileSpriteIndex: 1
      m_TileMatrixIndex: 0
      m_TileColorIndex: 0
      m_TileObjectToInstantiateIndex: 65535
      m_AllTileFlags: 1073741825
  - first: {x: 1, y: 0, z: 0}
    second:
      serializedVersion: 2
      m_TileIndex: 2
      m_TileSpriteIndex: 2
      m_TileMatrixIndex: 0
      m_TileColorIndex: 0
      m_TileObjectToInstantiateIndex: 65535
      m_AllTileFlags: 1073741825
  - first: {x: 2, y: 0, z: 0}
    second:
      serializedVersion: 2
      m_TileIndex: 7
      m_TileSpriteIndex: 7
      m_TileMatrixIndex: 0
      m_TileColorIndex: 0
      m_TileObjectToInstantiateIndex: 65535
      m_AllTileFlags: 1073741825
  - first: {x: 3, y: 0, z: 0}
    second:
      serializedVersion: 2
      m_TileIndex: 8
      m_TileSpriteIndex: 8
      m_TileMatrixIndex: 0
      m_TileColorIndex: 0
      m_TileObjectToInstantiateIndex: 65535
      m_AllTileFlags: 1073741825
  - first: {x: 4, y: 0, z: 0}
    second:
      serializedVersion: 2
      m_TileIndex: 9
      m_TileSpriteIndex: 9
      m_TileMatrixIndex: 0
      m_TileColorIndex: 0
      m_TileObjectToInstantiateIndex: 65535
      m_AllTileFlags: 1073741825
  - first: {x: 5, y: 0, z: 0}
    second:
      serializedVersion: 2
      m_TileIndex: 10
      m_TileSpriteIndex: 10
      m_TileMatrixIndex: 0
      m_TileColorIndex: 0
      m_TileObjectToInstantiateIndex: 65535
      m_AllTileFlags: 1073741825
  - first: {x: 6, y: 0, z: 0}
    second:
      serializedVersion: 2
      m_TileIndex: 11
      m_TileSpriteIndex: 11
      m_TileMatrixIndex: 0
      m_TileColorIndex: 0
      m_TileObjectToInstantiateIndex: 65535
      m_AllTileFlags: 1073741825
  - first: {x: 7, y: 0, z: 0}
    second:
      serializedVersion: 2
      m_TileIndex: 12
      m_TileSpriteIndex: 12
      m_TileMatrixIndex: 0
      m_TileColorIndex: 0
      m_TileObjectToInstantiateIndex: 65535
      m_AllTileFlags: 1073741825
  - first: {x: 8, y: 0, z: 0}
    second:
      serializedVersion: 2
      m_TileIndex: 13
      m_TileSpriteIndex: 13
      m_TileMatrixIndex: 0
      m_TileColorIndex: 0
      m_TileObjectToInstantiateIndex: 65535
      m_AllTileFlags: 1073741825
  m_AnimatedTiles: {}
  m_TileAssetArray:
  - m_RefCount: 1
    m_Data: {fileID: 11400000, guid: 8562f38417facfd459fceeb8e58f1b93, type: 2}
  - m_RefCount: 1
    m_Data: {fileID: 11400000, guid: 9c7657251dd036c41b3074add778ca73, type: 2}
  - m_RefCount: 1
    m_Data: {fileID: 11400000, guid: cc15b26571e505646a4332779f642bc0, type: 2}
  - m_RefCount: 1
    m_Data: {fileID: 11400000, guid: ac4abec22a37e1b49ab2f8713516fdff, type: 2}
  - m_RefCount: 1
    m_Data: {fileID: 11400000, guid: 4e771a05fc8acec4aace275286f84514, type: 2}
  - m_RefCount: 1
    m_Data: {fileID: 11400000, guid: 72657163cd46c9c479934360ec35a4bc, type: 2}
  - m_RefCount: 1
    m_Data: {fileID: 11400000, guid: 062063e49f5de304481c556c88248b08, type: 2}
  - m_RefCount: 1
    m_Data: {fileID: 11400000, guid: 776cc4609b5b3a54c8be1d2e2adc7f67, type: 2}
  - m_RefCount: 1
    m_Data: {fileID: 11400000, guid: 929bbabb23ffe0f48bbe452a74c74bcb, type: 2}
  - m_RefCount: 1
    m_Data: {fileID: 11400000, guid: 2c4744f59940aa34189fc67ff3f77b2e, type: 2}
  - m_RefCount: 1
    m_Data: {fileID: 11400000, guid: 963e372debf4e7142b07f87643fc081c, type: 2}
  - m_RefCount: 1
    m_Data: {fileID: 11400000, guid: ed69955f7de4b0340b1bfa7d1872bc5c, type: 2}
  - m_RefCount: 1
    m_Data: {fileID: 11400000, guid: eb581b6bc694e3d4fa2b91096d67ab4e, type: 2}
  - m_RefCount: 1
    m_Data: {fileID: 11400000, guid: 906ee495b3acd204daac1c86eeffd982, type: 2}
  - m_RefCount: 1
    m_Data: {fileID: 11400000, guid: ea897c52cbe850d45abbcd75f48b058d, type: 2}
  - m_RefCount: 1
    m_Data: {fileID: 11400000, guid: 8617e86599022114fabf9e5e0223ba7a, type: 2}
  - m_RefCount: 1
    m_Data: {fileID: 11400000, guid: 44c30bbfdb41b374c909eab9b235e05b, type: 2}
  - m_RefCount: 1
    m_Data: {fileID: 11400000, guid: 5210054582f272745b89e51fb68ba0c0, type: 2}
  - m_RefCount: 1
    m_Data: {fileID: 11400000, guid: 40e406214a5110c4d8a532143a712e86, type: 2}
  - m_RefCount: 1
    m_Data: {fileID: 11400000, guid: 96641548aa4e1c849a9924b59ea0dfff, type: 2}
  - m_RefCount: 1
    m_Data: {fileID: 11400000, guid: 58cb5940ad839fd4b8ca11efb33b0e3e, type: 2}
  - m_RefCount: 1
    m_Data: {fileID: 11400000, guid: c4b4f639878f04f4ab966acededad984, type: 2}
  - m_RefCount: 1
    m_Data: {fileID: 11400000, guid: f3641ff75e94e7146a342b1c8aab77f7, type: 2}
  - m_RefCount: 1
    m_Data: {fileID: 11400000, guid: 230b4423ae25219488738500970125fa, type: 2}
  - m_RefCount: 1
    m_Data: {fileID: 11400000, guid: 3146913ed3a666d468d7c26a63beee67, type: 2}
  - m_RefCount: 1
    m_Data: {fileID: 11400000, guid: 60535b5dda6bb3e40862e6a69f8932f4, type: 2}
  - m_RefCount: 1
    m_Data: {fileID: 11400000, guid: 84f3109bd9643034a93808233ae71e2d, type: 2}
  - m_RefCount: 1
    m_Data: {fileID: 11400000, guid: bc7e224c4191dfc4c9e0ee992b14f32d, type: 2}
  - m_RefCount: 1
    m_Data: {fileID: 11400000, guid: 3b929faa807cb0f41977803d7fac1823, type: 2}
  - m_RefCount: 1
    m_Data: {fileID: 11400000, guid: 07b6a4c19b4ce814aa57d2236cd507b3, type: 2}
  - m_RefCount: 1
    m_Data: {fileID: 11400000, guid: e9ec2b10c9acd1c4296915ced4028486, type: 2}
  - m_RefCount: 1
    m_Data: {fileID: 11400000, guid: cc11f89affb2a6947b7ba1168472733a, type: 2}
  - m_RefCount: 1
    m_Data: {fileID: 11400000, guid: 4121a3c5c5bf1c94ebb48fd5e2e05fdc, type: 2}
  - m_RefCount: 1
    m_Data: {fileID: 11400000, guid: 3124bba94b2d09f4d8a90c9de360a626, type: 2}
  - m_RefCount: 1
    m_Data: {fileID: 11400000, guid: 88e7b7d3fd0a2ff4e8b77a4b107f5166, type: 2}
  - m_RefCount: 1
    m_Data: {fileID: 11400000, guid: 0d142c80bdd854948a1a1b2e0e205461, type: 2}
  - m_RefCount: 1
    m_Data: {fileID: 11400000, guid: bcc0e924cf4a15f4b925a68e60e51cf5, type: 2}
  - m_RefCount: 1
    m_Data: {fileID: 11400000, guid: 46593fbf943c5954e8f9261655585dd6, type: 2}
  - m_RefCount: 1
    m_Data: {fileID: 11400000, guid: 09e72a110ed0a86479693ddeec4cf044, type: 2}
  - m_RefCount: 1
    m_Data: {fileID: 11400000, guid: 449f5df24db45a04087d1152a3ca8523, type: 2}
  - m_RefCount: 1
    m_Data: {fileID: 11400000, guid: 775c13a26228367418575481c8693b7d, type: 2}
  - m_RefCount: 1
    m_Data: {fileID: 11400000, guid: 4afcca269bab7e6458eb02904f20c40d, type: 2}
  - m_RefCount: 1
    m_Data: {fileID: 11400000, guid: e0582222f834d3742b965ebb4b5e4880, type: 2}
  - m_RefCount: 1
    m_Data: {fileID: 11400000, guid: fc6de0f5de4911c4d99cb053f5eaa686, type: 2}
  m_TileSpriteArray:
  - m_RefCount: 1
    m_Data: {fileID: -2142395308413883788, guid: 1df5c0c1af985b047966f439994665bb, type: 3}
  - m_RefCount: 1
    m_Data: {fileID: -6169547827299006049, guid: 1df5c0c1af985b047966f439994665bb, type: 3}
  - m_RefCount: 1
    m_Data: {fileID: 6986240562259435968, guid: 1df5c0c1af985b047966f439994665bb, type: 3}
  - m_RefCount: 1
    m_Data: {fileID: -5675197107361029585, guid: 1df5c0c1af985b047966f439994665bb, type: 3}
  - m_RefCount: 1
    m_Data: {fileID: -4615599820529238956, guid: 1df5c0c1af985b047966f439994665bb, type: 3}
  - m_RefCount: 1
    m_Data: {fileID: -9142679193960483021, guid: 1df5c0c1af985b047966f439994665bb, type: 3}
  - m_RefCount: 1
    m_Data: {fileID: -6785251898353012390, guid: 1df5c0c1af985b047966f439994665bb, type: 3}
  - m_RefCount: 1
    m_Data: {fileID: -5508255713208970728, guid: 1df5c0c1af985b047966f439994665bb, type: 3}
  - m_RefCount: 1
    m_Data: {fileID: -8167528229687020735, guid: 1df5c0c1af985b047966f439994665bb, type: 3}
  - m_RefCount: 1
    m_Data: {fileID: -2023833865485183944, guid: 1df5c0c1af985b047966f439994665bb, type: 3}
  - m_RefCount: 1
    m_Data: {fileID: 7171152569627820962, guid: 1df5c0c1af985b047966f439994665bb, type: 3}
  - m_RefCount: 1
    m_Data: {fileID: -6122640808789625487, guid: 1df5c0c1af985b047966f439994665bb, type: 3}
  - m_RefCount: 1
    m_Data: {fileID: -8085404556846294482, guid: 1df5c0c1af985b047966f439994665bb, type: 3}
  - m_RefCount: 1
    m_Data: {fileID: 5572302750193172506, guid: 1df5c0c1af985b047966f439994665bb, type: 3}
  - m_RefCount: 1
    m_Data: {fileID: -6382687225760334202, guid: 1df5c0c1af985b047966f439994665bb, type: 3}
  - m_RefCount: 1
    m_Data: {fileID: -8360511918760264488, guid: 1df5c0c1af985b047966f439994665bb, type: 3}
  - m_RefCount: 1
    m_Data: {fileID: 1713320718958640984, guid: 1df5c0c1af985b047966f439994665bb, type: 3}
  - m_RefCount: 1
    m_Data: {fileID: -5376770116707457132, guid: 1df5c0c1af985b047966f439994665bb, type: 3}
  - m_RefCount: 1
    m_Data: {fileID: 7779409902335466153, guid: 1df5c0c1af985b047966f439994665bb, type: 3}
  - m_RefCount: 1
    m_Data: {fileID: -6978268635019275183, guid: 1df5c0c1af985b047966f439994665bb, type: 3}
  - m_RefCount: 1
    m_Data: {fileID: -3669318291559786687, guid: 1df5c0c1af985b047966f439994665bb, type: 3}
  - m_RefCount: 1
    m_Data: {fileID: -5167014826881746190, guid: 1df5c0c1af985b047966f439994665bb, type: 3}
  - m_RefCount: 1
    m_Data: {fileID: -757529140962569770, guid: 1df5c0c1af985b047966f439994665bb, type: 3}
  - m_RefCount: 1
    m_Data: {fileID: -5836983961060676562, guid: 1df5c0c1af985b047966f439994665bb, type: 3}
  - m_RefCount: 1
    m_Data: {fileID: -183257784357081231, guid: 1df5c0c1af985b047966f439994665bb, type: 3}
  - m_RefCount: 1
    m_Data: {fileID: 8600811095525339843, guid: 1df5c0c1af985b047966f439994665bb, type: 3}
  - m_RefCount: 1
    m_Data: {fileID: 8568049638327406692, guid: 1df5c0c1af985b047966f439994665bb, type: 3}
  - m_RefCount: 1
    m_Data: {fileID: 1091065921662453008, guid: 1df5c0c1af985b047966f439994665bb, type: 3}
  - m_RefCount: 1
    m_Data: {fileID: -788821553613941525, guid: 1df5c0c1af985b047966f439994665bb, type: 3}
  - m_RefCount: 1
    m_Data: {fileID: 7473682247437558136, guid: 1df5c0c1af985b047966f439994665bb, type: 3}
  - m_RefCount: 1
    m_Data: {fileID: 5722760456918989823, guid: 1df5c0c1af985b047966f439994665bb, type: 3}
  - m_RefCount: 1
    m_Data: {fileID: 4637009699854403099, guid: 1df5c0c1af985b047966f439994665bb, type: 3}
  - m_RefCount: 1
    m_Data: {fileID: 329754589081988448, guid: 1df5c0c1af985b047966f439994665bb, type: 3}
  - m_RefCount: 1
    m_Data: {fileID: -6631849398911678854, guid: 1df5c0c1af985b047966f439994665bb, type: 3}
  - m_RefCount: 1
    m_Data: {fileID: -3673304735364446336, guid: 1df5c0c1af985b047966f439994665bb, type: 3}
  - m_RefCount: 1
    m_Data: {fileID: -2229411650091354008, guid: 1df5c0c1af985b047966f439994665bb, type: 3}
  - m_RefCount: 1
    m_Data: {fileID: 8374642069467999775, guid: 1df5c0c1af985b047966f439994665bb, type: 3}
  - m_RefCount: 1
    m_Data: {fileID: -8472289212406551108, guid: 1df5c0c1af985b047966f439994665bb, type: 3}
  - m_RefCount: 1
    m_Data: {fileID: 886251773906056718, guid: 1df5c0c1af985b047966f439994665bb, type: 3}
  - m_RefCount: 1
    m_Data: {fileID: 7352176897207321477, guid: 1df5c0c1af985b047966f439994665bb, type: 3}
  - m_RefCount: 1
    m_Data: {fileID: 8360999991691723209, guid: 1df5c0c1af985b047966f439994665bb, type: 3}
  - m_RefCount: 1
    m_Data: {fileID: -2519750281276700285, guid: 1df5c0c1af985b047966f439994665bb, type: 3}
  - m_RefCount: 1
    m_Data: {fileID: -1089661043122482919, guid: 1df5c0c1af985b047966f439994665bb, type: 3}
  - m_RefCount: 1
    m_Data: {fileID: 7422424009392708007, guid: 1df5c0c1af985b047966f439994665bb, type: 3}
  m_TileMatrixArray:
  - m_RefCount: 44
    m_Data:
      e00: 1
      e01: 0
      e02: 0
      e03: 0
      e10: 0
      e11: 1
      e12: 0
      e13: 0
      e20: 0
      e21: 0
      e22: 1
      e23: 0
      e30: 0
      e31: 0
      e32: 0
      e33: 1
  m_TileColorArray:
  - m_RefCount: 44
    m_Data: {r: 1, g: 1, b: 1, a: 1}
  m_TileObjectToInstantiateArray: []
  m_AnimationFrameRate: 1
  m_Color: {r: 1, g: 1, b: 1, a: 1}
  m_Origin: {x: -1, y: -5, z: 0}
  m_Size: {x: 10, y: 6, z: 1}
  m_TileAnchor: {x: 0.5, y: 0.5, z: 0}
  m_TileOrientation: 0
  m_TileOrientationMatrix:
    e00: 1
    e01: 0
    e02: 0
    e03: 0
    e10: 0
    e11: 1
    e12: 0
    e13: 0
    e20: 0
    e21: 0
    e22: 1
    e23: 0
    e30: 0
    e31: 0
    e32: 0
    e33: 1
--- !u!483693784 &4385763361468955115
TilemapRenderer:
  m_ObjectHideFlags: 0
  m_CorrespondingSourceObject: {fileID: 0}
  m_PrefabInstance: {fileID: 0}
  m_PrefabAsset: {fileID: 0}
  m_GameObject: {fileID: 473924830712789034}
  m_Enabled: 1
  m_CastShadows: 0
  m_ReceiveShadows: 0
  m_DynamicOccludee: 1
  m_MotionVectors: 1
  m_LightProbeUsage: 0
  m_ReflectionProbeUsage: 0
  m_RayTracingMode: 0
  m_RayTraceProcedural: 0
  m_RenderingLayerMask: 1
  m_RendererPriority: 0
  m_Materials:
  - {fileID: 10754, guid: 0000000000000000f000000000000000, type: 0}
  m_StaticBatchInfo:
    firstSubMesh: 0
    subMeshCount: 0
  m_StaticBatchRoot: {fileID: 0}
  m_ProbeAnchor: {fileID: 0}
  m_LightProbeVolumeOverride: {fileID: 0}
  m_ScaleInLightmap: 1
  m_ReceiveGI: 1
  m_PreserveUVs: 0
  m_IgnoreNormalsForChartDetection: 0
  m_ImportantGI: 0
  m_StitchLightmapSeams: 1
  m_SelectedEditorRenderState: 0
  m_MinimumChartSize: 4
  m_AutoUVMaxDistance: 0.5
  m_AutoUVMaxAngle: 89
  m_LightmapParameters: {fileID: 0}
  m_SortingLayerID: 0
  m_SortingLayer: 0
  m_SortingOrder: 0
  m_ChunkSize: {x: 32, y: 32, z: 32}
  m_ChunkCullingBounds: {x: 0, y: 0, z: 0}
  m_MaxChunkCount: 16
  m_MaxFrameAge: 16
  m_SortOrder: 0
  m_Mode: 0
  m_DetectChunkCullingBounds: 0
  m_MaskInteraction: 0
--- !u!1 &8563886051460692947
GameObject:
  m_ObjectHideFlags: 0
  m_CorrespondingSourceObject: {fileID: 0}
  m_PrefabInstance: {fileID: 0}
  m_PrefabAsset: {fileID: 0}
  serializedVersion: 6
  m_Component:
  - component: {fileID: 3043851732527256221}
  - component: {fileID: 3179240928717257396}
  m_Layer: 31
  m_Name: WallPallete
  m_TagString: Untagged
  m_Icon: {fileID: 0}
  m_NavMeshLayer: 0
  m_StaticEditorFlags: 0
  m_IsActive: 1
--- !u!4 &3043851732527256221
Transform:
  m_ObjectHideFlags: 0
  m_CorrespondingSourceObject: {fileID: 0}
  m_PrefabInstance: {fileID: 0}
  m_PrefabAsset: {fileID: 0}
  m_GameObject: {fileID: 8563886051460692947}
  m_LocalRotation: {x: 0, y: 0, z: 0, w: 1}
  m_LocalPosition: {x: 0, y: 0, z: 0}
  m_LocalScale: {x: 1, y: 1, z: 1}
  m_Children:
  - {fileID: 4318048383172350323}
  m_Father: {fileID: 0}
  m_RootOrder: 0
  m_LocalEulerAnglesHint: {x: 0, y: 0, z: 0}
--- !u!156049354 &3179240928717257396
Grid:
  m_ObjectHideFlags: 0
  m_CorrespondingSourceObject: {fileID: 0}
  m_PrefabInstance: {fileID: 0}
  m_PrefabAsset: {fileID: 0}
  m_GameObject: {fileID: 8563886051460692947}
  m_Enabled: 1
  m_CellSize: {x: 0.16, y: 0.16, z: 0}
  m_CellGap: {x: 0, y: 0, z: 0}
  m_CellLayout: 0
  m_CellSwizzle: 0
--- !u!114 &3413541639782254376
MonoBehaviour:
  m_ObjectHideFlags: 0
  m_CorrespondingSourceObject: {fileID: 0}
  m_PrefabInstance: {fileID: 0}
  m_PrefabAsset: {fileID: 0}
  m_GameObject: {fileID: 0}
  m_Enabled: 1
  m_EditorHideFlags: 0
  m_Script: {fileID: 12395, guid: 0000000000000000e000000000000000, type: 0}
  m_Name: Palette Settings
  m_EditorClassIdentifier: 
  cellSizing: 0
